{
  "version": "2019.0.0",
  "build": {
    "name": "wuiframework/wui-ubuntu-base",
    "useEnv": false
  },
  "container": {
    "name": "wui-ubuntu-base",
    "bindPorts": [
      {
        "containerPort": 22,
        "hostPort": 2222
      }
    ]
  }
}