{
  "extends": "tslint:latest",
  "defaultSeverity": "warning",
  "rules": {
    "adjacent-overload-signatures": true,
    "align": {
      "options": [
        "parameters",
        "statements"
      ]
    },
    "array-type": {
      "options": [
        "array-simple"
      ]
    },
    "arrow-parens": true,
    "arrow-return-shorthand": true,
    "ban-types": {
      "options": [
        [
          "Object",
          "Avoid using the \"Object\" type. Did you mean \"object\"?"
        ],
        [
          "Function",
          "Avoid using the \"Function\" type. Prefer a specific function type, like \"() => void\"."
        ],
        [
          "Boolean",
          "Avoid using the \"Boolean\" type. Did you mean \"boolean\"?"
        ],
        [
          "Number",
          "Avoid using the \"Number\" type. Did you mean \"number\"?"
        ],
        [
          "String",
          "Avoid using the \"String\" type. Did you mean \"string\"?"
        ],
        [
          "Symbol",
          "Avoid using the \"Symbol\" type. Did you mean \"symbol\"?"
        ]
      ]
    },
    "callable-types": true,
    "class-name": true,
    "comment-format": {
      "options": [
        "check-space"
      ]
    },
    "curly": true,
    "cyclomatic-complexity": false,
    "eofline": true,
    "forin": true,
    "import-spacing": true,
    "indent": {
      "options": [
        "spaces"
      ]
    },
    "interface-name": {
      "options": [
        "always-prefix"
      ]
    },
    "interface-over-type-literal": true,
    "jsdoc-format": true,
    "label-position": true,
    "max-classes-per-file": false,
    "max-line-length": {
      "options": [
        140
      ]
    },
    "member-access": true,
    "member-ordering": {
      "options": {
        "order": [
          "public-static-field",
          "protected-static-field",
          "private-static-field",
          "public-instance-field",
          "protected-instance-field",
          "private-instance-field",
          "public-static-method",
          "protected-static-method",
          "private-static-method",
          "constructor",
          "public-instance-method",
          "protected-instance-method",
          "private-instance-method"
        ]
      }
    },
    "new-parens": true,
    "no-angle-bracket-type-assertion": false,
    "no-any": false,
    "no-arg": true,
    "no-bitwise": true,
    "no-conditional-assignment": true,
    "no-consecutive-blank-lines": true,
    "no-console": {
      "options": [
        "debug",
        "info",
        "log",
        "time",
        "timeEnd",
        "trace"
      ]
    },
    "no-construct": true,
    "no-debugger": true,
    "no-duplicate-super": true,
    "no-empty": true,
    "no-empty-interface": true,
    "no-eval": true,
    "no-internal-module": true,
    "no-invalid-this": false,
    "no-implicit-dependencies": false,
    "no-misused-new": true,
    "no-namespace": false,
    "no-parameter-properties": false,
    "no-reference": true,
    "no-shadowed-variable": false,
    "no-string-literal": true,
    "no-string-throw": true,
    "no-switch-case-fall-through": false,
    "no-trailing-whitespace": true,
    "no-unnecessary-initializer": true,
    "no-unsafe-finally": true,
    "no-unused-expression": true,
    // disable this rule as it is very heavy performance-wise and not that useful
    "no-use-before-declare": false,
    "no-var-keyword": true,
    "no-var-requires": true,
    "object-literal-key-quotes": {
      "options": [
        "consistent-as-needed"
      ]
    },
    "object-literal-shorthand": true,
    "object-literal-sort-keys": true,
    "no-object-literal-type-assertion": false,
    "no-invalid-template-strings": false,
    "prefer-conditional-expression": false,
    "one-line": {
      "options": [
        "check-catch",
        "check-else",
        "check-finally",
        "check-open-brace",
        "check-whitespace"
      ]
    },
    "one-variable-per-declaration": {
      "options": [
        "ignore-for-loop"
      ]
    },
    "only-arrow-functions": {
      "options": [
        "allow-declarations",
        "allow-named-functions"
      ]
    },
    "ordered-imports": {
      "options": {
        "import-sources-order": "case-insensitive",
        "named-imports-order": "case-insensitive"
      }
    },
    "prefer-const": true,
    "prefer-for-of": true,
    "quotemark": {
      "options": [
        "double",
        "avoid-escape"
      ]
    },
    "radix": true,
    "semicolon": {
      "options": [
        "always"
      ]
    },
    "space-before-function-paren": {
      "options": {
        "anonymous": "always",
        "asyncArrow": "always",
        "constructor": "never",
        "method": "never",
        "named": "never"
      }
    },
    "trailing-comma": {
      "options": {
        "multiline": "never",
        "singleline": "never"
      }
    },
    "triple-equals": {
      "options": [
        "allow-null-check"
      ]
    },
    "typedef": true,
    "typedef-whitespace": {
      "options": [
        {
          "call-signature": "onespace",
          "index-signature": "onespace",
          "parameter": "onespace",
          "property-declaration": "onespace",
          "variable-declaration": "onespace"
        },
        {
          "call-signature": "onespace",
          "index-signature": "onespace",
          "parameter": "onespace",
          "property-declaration": "onespace",
          "variable-declaration": "onespace"
        }
      ]
    },
    "unified-signatures": true,
    "use-isnan": true,
    "variable-name": {
      "options": [
        "ban-keywords",
        "check-format",
        "allow-pascal-case"
      ]
    },
    "whitespace": {
      "options": [
        "check-branch",
        "check-decl",
        "check-operator",
        "check-separator",
        "check-type"
      ]
    }
  }
}
